[
  {
    "title" : "Basic Details",
    "content" : "Update basic details to increase profile score by 20%.",
    "profileStructureType":8
  },
  {
    "title" : "Location",
    "content" : "Enter your tuition locations to increase profile score by 10%",
    "profileStructureType":2
  },
  {
    "title" : "Tuition Details",
    "content" : "Enter Details about courses and classes you teach and increase your profile score by 25%",
    "profileStructureType":3
  },
  {
    "title" : "Faculty Details",
    "content" : "Enter all your faculty details and increase your profile score by 10%",
    "profileStructureType":9
  },
  {
    "title" : "Social Profiles",
    "content" : "Provide details of your social profiles to increase your profile score by 5%",
    "profileStructureType":5
  },
  {
    "title" : "Content",
    "content" : "Upload your promotional content to increase your profile score by 25%",
    "profileStructureType":6
  },
  {
    "title" : "Reviews",
    "content" : "Invite your contacts to review and like your profile to increase your profile by 10%",
    "profileStructureType":7
  }
]